Having Fun with Tidy Text!
…
Awesome! Now our posts are cleaned with the hashtags and @ mentions still intact. What we can try now is to plot the frequency of some of these terms according to WHERE they occur. Silge and Robinson have an example with persons, let’s try with coordinates.

freq <- tidy_tweets %>% 
  group_by(latitude,longitude) %>% 
  count(word, sort = TRUE) %>% 
  left_join(tidy_tweets %>% 
              group_by(latitude,longitude) %>% 
              summarise(total = n())) %>%
  mutate(freq = n/total)

freq

## Source: local data frame [61,008 x 6]
## Groups: latitude, longitude [1,411]
## 
##    latitude longitude          word     n total       freq
##       <dbl>     <dbl>         <chr> <int> <int>      <dbl>
## 1  37.76000 -122.4200       mission  1844 21372 0.08628112
## 2  37.76000 -122.4200           san  1592 21372 0.07448999
## 3  37.76000 -122.4200      district  1576 21372 0.07374134
## 4  37.76000 -122.4200     francisco  1464 21372 0.06850084
## 5  37.75833 -122.4275          park   293  2745 0.10673953
## 6  37.75833 -122.4275       mission   285  2745 0.10382514
## 7  37.75833 -122.4275       dolores   278  2745 0.10127505
## 8  37.76000 -122.4200 #sanfrancisco   275 21372 0.01286730
## 9  37.76300 -122.4209         alley   245  2273 0.10778707
## 10 37.76300 -122.4209       clarion   242  2273 0.10646722
## # ... with 60,998 more rows
…
words_by_time <- tidy_tweets %>%
  mutate(time_floor = floor_date(created2, unit = "1 week")) %>%
  count(time_floor, word) %>%
  ungroup() %>%
  group_by(time_floor) %>%
  mutate(time_total = sum(n)) %>%
  group_by(word) %>%
  mutate(word_total = sum(n)) %>%
  ungroup() %>%
  rename(count = n) %>%
  filter(word_total > 100)

words_by_time

## # A tibble: 1,979 × 5
##    time_floor             word count time_total word_total
##        <dttm>            <chr> <int>      <int>      <int>
## 1  0016-07-31             #art     7       2729        120
## 2  0016-07-31      #california     9       2729        149
## 3  0016-07-31     #dolorespark     6       2729        168
## 4  0016-07-31         #mission     5       2729        222
## 5  0016-07-31 #missiondistrict     1       2729        158
## 6  0016-07-31    #sanfrancisco    38       2729       1034
## 7  0016-07-31              #sf    23       2729        603
## 8  0016-07-31       #streetart    12       2729        229
## 9  0016-07-31             24th    10       2729        109
## 10 0016-07-31            alamo     3       2729        111
## # ... with 1,969 more rows

Alright, now we want to figure out those words that have changed the most in their frequency over time so as to isolate ones of interests to plot over time. This involves a few steps though.

nested_data <- words_by_time %>%
  nest(-word) 
nested_data

## # A tibble: 71 × 2
##                word              data
##               <chr>            <list>
## 1              #art <tibble [26 × 4]>
## 2       #california <tibble [28 × 4]>
## 3      #dolorespark <tibble [27 × 4]>
## 4          #mission <tibble [28 × 4]>
## 5  #missiondistrict <tibble [29 × 4]>
## 6     #sanfrancisco <tibble [29 × 4]>
## 7               #sf <tibble [29 × 4]>
## 8        #streetart <tibble [28 × 4]>
## 9              24th <tibble [28 × 4]>
## 10            alamo <tibble [27 × 4]>
## # ... with 61 more rows

Process as described by Silge and Robinson: “This data frame has one row for each person-word combination; the data column is a list column that contains data frames, one for each combination of person and word. Let’s use map() from the purrr library to apply our modeling procedure to each of those little data frames inside our big data frame. This is count data so let’s use glm() with family =”binomial" for modeling. We can think about this modeling procedure answering a question like, “Was a given word mentioned in a given time bin? Yes or no? How does the count of word mentions depend on time?”"

nested_models <- nested_data %>%
  mutate(models = map(data, ~ glm(cbind(count, time_total) ~ time_floor, ., 
                                  family = "binomial")))

nested_models

## # A tibble: 71 × 3
##                word              data    models
##               <chr>            <list>    <list>
## 1              #art <tibble [26 × 4]> <S3: glm>
## 2       #california <tibble [28 × 4]> <S3: glm>
## 3      #dolorespark <tibble [27 × 4]> <S3: glm>
## 4          #mission <tibble [28 × 4]> <S3: glm>
## 5  #missiondistrict <tibble [29 × 4]> <S3: glm>
## 6     #sanfrancisco <tibble [29 × 4]> <S3: glm>
## 7               #sf <tibble [29 × 4]> <S3: glm>
## 8        #streetart <tibble [28 × 4]> <S3: glm>
## 9              24th <tibble [28 × 4]> <S3: glm>
## 10            alamo <tibble [27 × 4]> <S3: glm>
## # ... with 61 more rows
…
After looking at some of these features of our data set, it’s time to explore TOPIC MODELING, or (paraphrasing from David Blei) finding structure in more-or-less unstructured documents. To do this we need a document-term matrix. At the moment, the tweets are a little problematic in that they are broken up by words… whereas we actually would like the text of the tweet back as that is what we are treating as our ‘document’. The question at the moment is… do we want to keep the hashtags / can we?

# Let's try by taking our tweets that have been tidied already. First we need to count each word though, and create some kind of column that has 
# This first one is helpful for seeing encodings that need to be removed
tidy_tweets %>%
  count(document, word, sort=TRUE)

## Source: local data frame [102,888 x 3]
## Groups: document [14,958]
## 
##    document                      word     n
##       <int>                     <chr> <int>
## 1      5932        facewithtearsofjoy    17
## 2      8849                   balloon     8
## 3     12204 blackquestionmarkornament     8
## 4      7697                       nov     7
## 5      7697                       wed     7
## 6     12204 whitequestionmarkornament     7
## 7      2110              sliceofpizza     6
## 8      2452                nailpolish     6
## 9      2741     facewithnogoodgesture     6
## 10     4014                 earofrice     6
## # ... with 102,878 more rows

# Counting words so we can make a dtm with our preserved corpus with hashtags and such
tweet_words <- tidy_tweets %>%  
  count(document, word) %>%
  ungroup()

total_words <- tweet_words %>% 
  group_by(document) %>% 
  summarize(total = sum(n))

post_words <- left_join(tweet_words, total_words)

post_words

## # A tibble: 102,888 × 4
##    document           word     n total
##       <int>          <chr> <int> <int>
## 1         1      #nofilter     1     7
## 2         1  #sanfrancisco     1     7
## 3         1      afternoon     1     7
## 4         1        dolores     1     7
## 5         1           park     2     7
## 6         1             sf     1     7
## 7         2 @publicworkssf     1     5
## 8         2    #dustyrhino     1     5
## 9         2          close     1     5
## 10        2           grin     1     5
## # ... with 102,878 more rows
…
