Intro to Text Mining
…
# As Silge and Robinson point out (and as you might have noticed) we have to get rid of the stop words again.
bigrams_separated <- cosi_bigrams %>%
  separate(bigram, c("word1", "word2"), sep = " ")

bigrams_filtered <- bigrams_separated %>%
  filter(!word1 %in% itstopwords$word) %>%
  filter(!word2 %in% itstopwords$word)

# new bigram counts:
bigram_counts <- bigrams_filtered %>% 
  count(word1, word2, sort = TRUE)

bigram_counts

## # A tibble: 1,687 x 3
##     word1    word2     n
##     <chr>    <chr> <int>
##  1  bella     vita     5
##  2   vita  militar     5
##  3   caro     bene     4
##  4  mille    volte     4
##  5 cangia     loco     3
##  6  cento zecchini     3
##  7  doman     poco     3
##  8   loco     oggi     3
##  9   oggi    molto     3
## 10   poco      ora     3
## # ... with 1,677 more rows

Interestingly for an opera (which might suggest certain phrases being repeated multiple times) we have few bigrams. We see some repeats for the chorus “Bella Vita Militar”, for example.

What about trigrams?

new_data %>%
  unnest_tokens(trigram, text2, token = "ngrams", n = 3) %>%
  separate(trigram, c("word1", "word2", "word3"), sep = " ") %>%
  filter(!word1 %in% itstopwords$word,
         !word2 %in% itstopwords$word,
         !word3 %in% itstopwords$word) %>%
  count(word1, word2, word3, sort = TRUE)

## # A tibble: 747 x 4
##      word1   word2    word3     n
##      <chr>   <chr>    <chr> <int>
##  1   bella    vita  militar     5
##  2  cangia    loco     oggi     3
##  3   doman    poco      ora     3
##  4    loco    oggi    molto     3
##  5  abbiam  giusta  ragione     2
##  6 alanima    vaga      sol     2
##  7   bombe   forza accresce     2
##  8    caro padrone   pagate     2
##  9   molto   doman     poco     2
## 10    oggi   molto    doman     2
## # ... with 737 more rows
…
figbigrams_separated <- fig_bigrams %>%
  separate(bigram, c("word1", "word2"), sep = " ")

figbigrams_filtered <- figbigrams_separated %>%
  filter(!word1 %in% itstopwords$word) %>%
  filter(!word2 %in% itstopwords$word)

# new bigram counts:
figbigram_counts <- figbigrams_filtered %>% 
  count(word1, word2, sort = TRUE)

figbigram_counts

## # A tibble: 1,763 x 3
##      word1    word2     n
##      <chr>    <chr> <int>
##  1  signor    conte     6
##  2   conte  susanna     5
##  3   conte      olà     4
##  4  saggio   signor     4
##  5 ballare   signor     3
##  6   conte    ebben     3
##  7     olà silenzio     3
##  8    pace     pace     3
##  9   parlo     amor     3
## 10 perdono  perdono     3
## # ... with 1,753 more rows

Interestingly for an opera (which might suggest certain phrases being repeated multiple times) we have few bigrams. We see some repeats for the chorus “Bella Vita Militar”, for example.

What about trigrams?

new_figaro %>%
  unnest_tokens(trigram, text2, token = "ngrams", n = 3) %>%
  separate(trigram, c("word1", "word2", "word3"), sep = " ") %>%
  filter(!word1 %in% itstopwords$word,
         !word2 %in% itstopwords$word,
         !word3 %in% itstopwords$word) %>%
  count(word1, word2, word3, sort = TRUE)

## # A tibble: 708 x 4
##       word1    word2    word3     n
##       <chr>    <chr>    <chr> <int>
##  1  ballare   signor  contino     3
##  2    conte      olà silenzio     3
##  3     vuol  ballare   signor     3
##  4   amanti costanti  seguaci     2
##  5     amor    donne   vedete     2
##  6      bel    fiore     almo     2
##  7      bel guadagno    colla     2
##  8    conte    gente    gente     2
##  9 costanti  seguaci     onor     2
## 10    donne   vedete     s'io     2
## # ... with 698 more rows
…
# Use representation of text that has stop words removed
mozart_words <- moztribble %>%
  count(opera, word, sort = TRUE) %>%
  ungroup()

total_words <- mozart_words %>% 
  group_by(opera) %>% 
  summarize(total = sum(n))

mozart_words <- left_join(mozart_words, total_words)

mozart_words

## # A tibble: 6,441 x 4
##     opera     word     n total
##     <chr>    <chr> <int> <int>
##  1 FIGARO    conte   233  4838
##  2 FIGARO contessa   134  4838
##  3 FIGARO  susanna    49  4838
##  4 FIGARO   signor    46  4838
##  5   COSI      cor    29  4200
##  6   COSI      due    27  4200
##  7 FIGARO   madama    25  4838
##  8 FIGARO   figaro    24  4838
##  9   COSI   amanti    22  4200
## 10   COSI    bella    21  4200
## # ... with 6,431 more rows
…
# Let's get this td-idf started
mozart_words2 <- mozart_words %>%
  bind_tf_idf(word, opera, n)
mozart_words2

## # A tibble: 6,441 x 7
##     opera     word     n total          tf       idf      tf_idf
##     <chr>    <chr> <int> <int>       <dbl>     <dbl>       <dbl>
##  1 FIGARO    conte   233  4838 0.048160397 1.0986123 0.052909604
##  2 FIGARO contessa   134  4838 0.027697396 1.0986123 0.030428699
##  3 FIGARO  susanna    49  4838 0.010128152 1.0986123 0.011126912
##  4 FIGARO   signor    46  4838 0.009508061 0.0000000 0.000000000
##  5   COSI      cor    29  4200 0.006904762 0.0000000 0.000000000
##  6   COSI      due    27  4200 0.006428571 0.0000000 0.000000000
##  7 FIGARO   madama    25  4838 0.005167425 0.0000000 0.000000000
##  8 FIGARO   figaro    24  4838 0.004960728 1.0986123 0.005449916
##  9   COSI   amanti    22  4200 0.005238095 0.4054651 0.002123865
## 10   COSI    bella    21  4200 0.005000000 0.0000000 0.000000000
## # ... with 6,431 more rows

# Look at high tf idf (i.e. terms that are most particular to certain operas)
mozart_words2 %>%
  select(-total) %>%
  arrange(desc(tf_idf))

## # A tibble: 6,441 x 6
##       opera      word     n          tf      idf      tf_idf
##       <chr>     <chr> <int>       <dbl>    <dbl>       <dbl>
##  1   FIGARO     conte   233 0.048160397 1.098612 0.052909604
##  2   FIGARO  contessa   134 0.027697396 1.098612 0.030428699
##  3   FIGARO   susanna    49 0.010128152 1.098612 0.011126912
##  4 GIOVANNI   masetto    21 0.006485485 1.098612 0.007125033
##  5 GIOVANNI leporello    19 0.005867820 1.098612 0.006446459
##  6   FIGARO    figaro    24 0.004960728 1.098612 0.005449916
##  7     COSI   despina    19 0.004523810 1.098612 0.004969913
##  8     COSI  guilelmo    15 0.003571429 1.098612 0.003923615
##  9   FIGARO    paggio    16 0.003307152 1.098612 0.003633278
## 10     COSI   alfonso    13 0.003095238 1.098612 0.003400467
## # ... with 6,431 more rows
…
