Adventures in Text Mining
…
# Get rid of stop words by doing an 'anti-join' (amazing run-down of what 
# all the joins do is available here:
# http://stat545.com/bit001_dplyr-cheatsheet.html#anti_joinsuperheroes-publishers)
data(stop_words)

tidy_tweets <- tidy_tweets %>%
  anti_join(stop_words)

Now we can look at things like most frequent words and sentiments expressed in our corpus.

# Find most common words in corpus
tidy_tweets %>%
  count(word, sort = TRUE) 

## # A tibble: 27,441 × 2
##             word     n
##            <chr> <int>
## 1        mission  3327
## 2            san  2751
## 3      francisco  2447
## 4       district  1871
## 5  #sanfrancisco  1175
## 6           park  1060
## 7        dolores  1045
## 8             sf  1031
## 9            #sf   696
## 10           day   597
## # ... with 27,431 more rows
…
What about different sentiments?

# What are the most common 'joy' words?
nrcjoy <- sentiments %>% 
  filter(lexicon == "nrc") %>%
  filter(sentiment == "joy")

tidy_tweets %>%
  semi_join(nrcjoy) %>%
  count(word, sort = TRUE)

## # A tibble: 355 × 2
##         word     n
##        <chr> <int>
## 1       love   466
## 2      happy   402
## 3        art   266
## 4   birthday   205
## 5   favorite   194
## 6  beautiful   179
## 7        fun   173
## 8       food   139
## 9      music   126
## 10 chocolate   105
## # ... with 345 more rows

# What are the most common 'disgust' words?
nrcdisgust <- sentiments %>% 
  filter(lexicon == "nrc") %>%
  filter(sentiment == "disgust")

tidy_tweets %>%
  semi_join(nrcdisgust) %>%
  count(word, sort = TRUE)

## # A tibble: 217 × 2
##       word     n
##      <chr> <int>
## 1  finally   100
## 2  feeling    55
## 3     gray    50
## 4     tree    50
## 5  hanging    44
## 6      bad    43
## 7      boy    40
## 8     shit    36
## 9    lemon    29
## 10   treat    28
## # ... with 207 more rows
…
